STAT 413/613
…
The nest() function from the tidyr package will turn a grouped data frame into a data frame where each group is a row.

All of the observations for each grouping are placed in the data variable as a data frame.

Lets look at an example.

gapminder %>%
  group_by(country, continent) %>%
  nest() ->
  nested_gap_df

nested_gap_df # one row per country

## # A tibble: 142 x 3
## # Groups:   country, continent [710]
##    country     continent data             
##    <fct>       <fct>     <list>           
##  1 Afghanistan Asia      <tibble [12  5]>
##  2 Albania     Europe    <tibble [12  5]>
##  3 Algeria     Africa    <tibble [12  5]>
##  4 Angola      Africa    <tibble [12  5]>
##  5 Argentina   Americas  <tibble [12  5]>
##  6 Australia   Oceania   <tibble [12  5]>
##  7 Austria     Europe    <tibble [12  5]>
##  8 Bahrain     Asia      <tibble [12  5]>
##  9 Bangladesh  Asia      <tibble [12  5]>
## 10 Belgium     Europe    <tibble [12  5]>
## #  with 132 more rows
…
We can now use purrr to fit a model on all of the elements (rows) of data since the elements (rows) are data frames.

nested_gap_df %>%
  mutate(lmout = map(data, ~lm(lifeExp ~ year, data = .))) ->
  nested_gap_df

Recall: the data = . argument means use all of the elements from the first map() argument, thedata column in the nested_gap_df data frame, as value for the lm() data = argument.

Lets look at the results with our new column lmout

It is also a list column where the elements of the list are of class lm

nested_gap_df

## # A tibble: 142 x 4
## # Groups:   country, continent [710]
##    country     continent data              lmout 
##    <fct>       <fct>     <list>            <list>
##  1 Afghanistan Asia      <tibble [12  5]> <lm>  
##  2 Albania     Europe    <tibble [12  5]> <lm>  
##  3 Algeria     Africa    <tibble [12  5]> <lm>  
##  4 Angola      Africa    <tibble [12  5]> <lm>  
##  5 Argentina   Americas  <tibble [12  5]> <lm>  
##  6 Australia   Oceania   <tibble [12  5]> <lm>  
##  7 Austria     Europe    <tibble [12  5]> <lm>  
##  8 Bahrain     Asia      <tibble [12  5]> <lm>  
##  9 Bangladesh  Asia      <tibble [12  5]> <lm>  
## 10 Belgium     Europe    <tibble [12  5]> <lm>  
## #  with 132 more rows
…
## # A tibble: 3 x 9
##   lifeExp  year .fitted .se.fit  .resid  .hat .sigma .cooksd .std.resid
##     <dbl> <int>   <dbl>   <dbl>   <dbl> <dbl>  <dbl>   <dbl>      <dbl>
## 1    68.4  1952    68.4   0.226  0.0262 0.295  0.439 0.00117     0.0748
## 2    69.5  1957    69.3   0.197  0.155  0.225  0.435 0.0261      0.424 
## 3    70.2  1962    70.3   0.171 -0.0455 0.169  0.438 0.00147    -0.120

nested_gap_df %>%
  mutate(tidyout = map(lmout, ~tidy(., conf.int = TRUE)),
         augmentout = map(lmout, augment),
         glanceout = map(lmout, glance)) ->
  nested_gap_df
nested_gap_df

## # A tibble: 142 x 7
## # Groups:   country, continent [710]
##    country   continent data        lmout  tidyout     augmentout    glanceout   
##    <fct>     <fct>     <list>      <list> <list>      <list>        <list>      
##  1 Afghanis Asia      <tibble [1 <lm>   <tibble [2 <tibble [12  <tibble [1 
##  2 Albania   Europe    <tibble [1 <lm>   <tibble [2 <tibble [12  <tibble [1 
##  3 Algeria   Africa    <tibble [1 <lm>   <tibble [2 <tibble [12  <tibble [1 
##  4 Angola    Africa    <tibble [1 <lm>   <tibble [2 <tibble [12  <tibble [1 
##  5 Argentina Americas  <tibble [1 <lm>   <tibble [2 <tibble [12  <tibble [1 
##  6 Australia Oceania   <tibble [1 <lm>   <tibble [2 <tibble [12  <tibble [1 
##  7 Austria   Europe    <tibble [1 <lm>   <tibble [2 <tibble [12  <tibble [1 
##  8 Bahrain   Asia      <tibble [1 <lm>   <tibble [2 <tibble [12  <tibble [1 
##  9 Banglade Asia      <tibble [1 <lm>   <tibble [2 <tibble [12  <tibble [1 
## 10 Belgium   Europe    <tibble [1 <lm>   <tibble [2 <tibble [12  <tibble [1 
## #  with 132 more rows
…
Add these summaries as another column in nested_gap_df.

Compare the results for China to the results from china_lm

8 Extract All the Data from One List Column into the data frame using unnest()

Using the unnest() function, followed by the ungroup() function, will convert a single list column into a new data frame with the meta-data, the still-nested list columns, AND, all the elements of the unnested column as variables and rows.

unnest(nested_gap_df, tidyout) %>%
  ungroup() ->
  model_summary_df

model_summary_df

## # A tibble: 284 x 13
##    country continent data  lmout term  estimate std.error statistic  p.value
##    <fct>   <fct>     <lis> <lis> <chr>    <dbl>     <dbl>     <dbl>    <dbl>
##  1 Afghan Asia      <tib <lm>  (Int -5.08e+2  40.5        -12.5  1.93e- 7
##  2 Afghan Asia      <tib <lm>  year   2.75e-1   0.0205      13.5  9.84e- 8
##  3 Albania Europe    <tib <lm>  (Int -5.94e+2  65.7         -9.05 3.94e- 6
##  4 Albania Europe    <tib <lm>  year   3.35e-1   0.0332      10.1  1.46e- 6
##  5 Algeria Africa    <tib <lm>  (Int -1.07e+3  43.8        -24.4  3.07e-10
##  6 Algeria Africa    <tib <lm>  year   5.69e-1   0.0221      25.7  1.81e-10
##  7 Angola  Africa    <tib <lm>  (Int -3.77e+2  46.6         -8.08 1.08e- 5
##  8 Angola  Africa    <tib <lm>  year   2.09e-1   0.0235       8.90 4.59e- 6
##  9 Argent Americas  <tib <lm>  (Int -3.90e+2   9.68       -40.3  2.14e-12
## 10 Argent Americas  <tib <lm>  year   2.32e-1   0.00489     47.4  4.22e-13
## #  with 274 more rows, and 4 more variables: conf.low <dbl>, conf.high <dbl>,
## #   augmentout <list>, glanceout <list>
…
