STAT 413/613: Working with Dates and Times
…
You can see variables for the year, month, day, hour, and minute of the scheduled departure time

  flights %>%
   mutate(datetime = make_datetime(year   = year, 
                                  month  = month, 
                                  day    = day,
                                  hour   = hour,
                                  min = minute)) ->
  flights
  select(flights, datetime)

## # A tibble: 336,776 x 1
##    datetime           
##    <dttm>             
##  1 2013-01-01 05:15:00
##  2 2013-01-01 05:29:00
##  3 2013-01-01 05:40:00
##  4 2013-01-01 05:45:00
##  5 2013-01-01 06:00:00
##  6 2013-01-01 05:58:00
##  7 2013-01-01 06:00:00
##  8 2013-01-01 06:00:00
##  9 2013-01-01 06:00:00
## 10 2013-01-01 06:00:00
## #  with 336,766 more rows
…
